CHEP 898 Supervised Learning
…
Hyperparameter Tuning

set.seed(100)

folds <- vfold_cv(train_data, v = 10) 

rf_grid <- grid_regular(
              mtry(range = c(2, 13)),
              min_n(range = c(5, 50)),
              levels = 5  
            )

rf_grid

## # A tibble: 25 × 2
##     mtry min_n
##    <int> <int>
##  1     2     5
##  2     4     5
##  3     7     5
##  4    10     5
##  5    13     5
##  6     2    16
##  7     4    16
##  8     7    16
##  9    10    16
## 10    13    16
## # ℹ 15 more rows
…
